{
  "title": "Theses.Current",
  "model": "StudentTheses",
  "searchExpression": "(indexof(student/person/familyName, '${text}') ge 0 or indexof(student/person/givenName, '${text}') ge 0 or indexof(student/studentIdentifier, '${text}') ge 0 or indexof(thesis/name, '${text}') ge 0 or indexof(thesis/instructor/familyName, '${text}') ge 0)",
  "columns": [
    {
      "name": "id",
      "virtual": true,
      "property" : "id",
      "formatter": "ButtonFormatter",
      "formatString": "#/theses/${id}",
      "className": "text-center",
      "formatOptions": {
        "buttonContent": "<i class=\"far fa-eye text-indigo\"></i>",
        "buttonClass": "btn btn-default"
      }
    },
    {
      "name": "thesis/id",
      "property": "id",
      "hidden": true
    },
    {
      "name": "student/id",
      "property": "studentId",
      "title": "Theses.StudentId",
      "hidden": true
    },
    {
      "name": "thesis/instructor/id",
      "property": "instructorId",
      "hidden": true,
      "title": "Theses.InstructorId"
    },
    {
      "name": "thesis/name",
      "property": "title",
      "title": "Theses.ThesesName"
    },
    {
      "name": "thesis/type/name",
      "property": "thesisType",
      "title": "Theses.ThesesType"
    },
    {
      "name": "thesis/subject/name",
      "property": "thesisSubject",
      "title": "Theses.ThesisSubject"
    },
    {
      "name": "thesis/startYear/alternateName",
      "property": "startYear",
      "title": "Theses.StartYear"
    },
    {
      "name": "thesis/startPeriod/alternateName",
      "property": "startPeriod",
      "title": "Theses.StartPeriod",
      "formatter": "TranslationFormatter",
      "formatString": "Periods.${value}"
    },
    {
      "name": "student/studentIdentifier",
      "property": "studentIdentifier",
      "title": "Theses.StudentIdentifier"
    },
    {
      "name": "student/person/familyName",
      "property": "familyName",
      "hidden": true,
      "title": "Theses.familyName"
    },
    {
      "name": "student/person/givenName",
      "property": "givenName",
      "title": "Theses.FullΝame",
      "formatter": "TemplateFormatter",
      "formatString": "${familyName} ${givenName}"
    },
    {
      "name": "student/studentStatus/alternateName",
      "property": "studentStatus",
      "title": "Theses.StudentStatus",
      "formatters": [
        {
          "formatter": "TranslationFormatter",
          "formatString": "Theses.StudentStatuses.${value}"
        },
        {
          "formatter": "NgClassFormatter",
          "formatOptions": {
            "ngClass": {
              "text-danger": "'${studentStatus}'==='removed' || '${studentStatus}'==='suspended' || '${studentStatus}' === 'erased'",
              "text-theme": "'${studentStatus}'==='active' || '${studentStatus}'==='candidate'",
              "text-success": "'${studentStatus}'==='declared' || '${studentStatus}'==='graduated' "
            }
          }
        }
      ]
    },
    {
      "name": "thesis/instructor/familyName",
      "property": "instructorFamilyName",
      "hidden": true,
      "title": "Theses.InstructorFamilyName"
    },
    {
      "name": "thesis/instructor/givenName",
      "property": "instructorGivenName",
      "title": "Theses.InstructorFullName",
      "formatter": "TemplateFormatter",
      "formatString": "${instructorFamilyName} ${instructorGivenName}"
    }
  ],
  "defaults":{
    "filter": "(student/department eq ${currentDepartment} and  thesis/startYear eq ${currentYear})"
  },
  "criteria": [
    {
      "name": "thesisName",
      "filter": "(indexof(thesis/name, '${value}') ge 0)",
      "type": "text"
    },
    {
      "name": "studentName",
      "filter": "(indexof(student/person/familyName, '${value}') ge 0 or indexof(student/person/givenName, '${value}') ge 0)",
      "type": "text"
    },
    {
      "name": "studentIdentifier",
      "filter": "(student/studentIdentifier eq '${value}')",
      "type": "text"
    },
    {
      "name": "startYearId",
      "filter": "(thesis/startYear/id eq '${value}')",
      "type": "text"
    },
    {
      "name": "startPeriod",
      "filter": "(thesis/startPeriod/alternateName eq '${value}')",
      "type": "text"
    },
    {
      "name": "instructorName",
      "filter": "(indexof(thesis/instructor/familyName, '${value}') ge 0 or indexof(thesis/instructor/givenName, '${value}') ge 0)",
      "type": "text"
    },
    {
      "name": "studentStatus",
      "filter": "(indexof(student/studentStatus/alternateName, '${value}') ge 0)",
      "type": "text"
    },
    {
      "name": "thesisType",
      "filter": "(thesis/type/id eq '${value && value.id}')",
      "type": "text"
    },
    {
      "name": "subject",
      "filter": "(thesis/subject eq '${value}')",
      "type": "text"
    }
  ]
}
