{
  "model": "Scholarships",
  "settings": {
    "i18n": {
      "el": {
        "Set the name of this scholarship.": "Ορίστε την ονομασία αυτής της υποτροφίας.",
        "Select the organization that offers this scholarship": "Επιλέξτε τον οργανισμό που προσφέρει την υποτροφία αυτή.",
        "Select the academic year this scholarship is being offered": "Επιλέξτε το ακαδημαϊκό έτος που προσφέρεται η υποτροφία αυτή",
        "Select the status of this scholarship.": "Επιλέξτε την κατάσταση της",
        "This is the department the student belongs to. It cannot be changed.": "Αυτό είναι το τμήμα στο οποίο ανήκει. Το πεδίο αυτό δεν μπορεί να αλλάξει."
      }
    }
  },
  "components": [
    {
      "type": "fieldset",
      "legend": "General",
      "components": [
        {
          "columns": [
            {
              "components": [
                {
                  "label": "Name",
                  "labelPosition": "top",
                  "widget": {
                    "type": "input"
                  },
                  "validate": {
                    "required": true
                  },
                  "key": "name",
                  "type": "textfield",
                  "input": true,
                  "description": "Set the name of this scholarship."
                }
              ],
              "width": 6
            },
            {
              "components": [
                {
                  "label": "Department",
                  "labelPosition": "top",
                  "key": "department.name",
                  "type": "textfield",
                  "input": true,
                  "disabled": true,
                  "description": "This is the department the student belongs to. It cannot be changed."
                }
              ],
              "width": 6
            }
          ],
          "customClass": "text-dark",
          "hideLabel": true,
          "type": "columns",
          "input": false
        },
        {
          "columns": [
            {
              "components": [
                {
                  "label": "Organization",
                  "labelPosition": "top",
                  "type": "select",
                  "dataSrc": "url",
                  "data": {
                    "url": "Companies",
                    "headers": []
                  },
                  "validate": {
                    "required": true
                  },
                  "searchFields": ["id","name"],
                  "searchField": "$search",
                  "template": "<span class='d-block pr-5 text-truncate'>{{ item.name }}</span>",
                  "selectValues": "value",
                  "key": "organization",
                  "valueProperty": "id",
                  "lazyLoad": false,
                  "widget": "choicesjs",
                  "input": true,
                  "searchEnabled": false,
                  "description": "Select the organization that offers this scholarship"
                }
              ],
              "width": 3
            },
            {
              "components": [
                {
                  "label": "Academic Year",
                  "labelPosition": "top",
                  "widget": "choicesjs",
                  "dataSrc": "url",
                  "data": {
                    "url": "AcademicYears/?$top=50&$orderby=name desc",
                    "headers": []
                  },
                  "searchFields": ["id","name","alternateName"],
                  "template": "<span class='d-block pr-5 text-truncate'>{{ item.alternateName }}</span>",
                  "selectValues": "value",
                  "lazyLoad": false,
                  "key": "year",
                  "type": "select",
                  "input": true,
                  "validate": {
                    "required": true
                  },
                  "searchEnabled": false,
                  "description": "Select the academic year this scholarship is being offered"
                }
              ],
              "width": 3
            },
            {
              "components": [
                {
                  "label": "Type",
                  "labelPosition": "top",
                  "widget": "choicesjs",
                  "dataSrc": "url",
                  "data": {
                    "url": "ScholarshipTypes",
                    "headers": []
                  },
                  "validate": {
                    "required": true
                  },
                  "template": "<span class='d-block pr-5 text-truncate'>{{ item.name }}</span>",
                  "selectValues": "value",
                  "lazyLoad": false,
                  "type": "select",
                  "key": "scholarshipType",
                  "input": true,
                  "searchEnabled": false
                }
              ],
              "width": 3
            },
            {
              "components": [
                {
                  "label": "Status",
                  "labelPosition": "top",
                  "widget": "choicesjs",
                  "dataSrc": "url",
                  "data": {
                    "url": "ScholarshipStatuses",
                    "headers": []
                  },
                  "validate": {
                    "required": true
                  },
                  "template": "<span class='d-block pr-5 text-truncate'>{{ item.name }}</span>",
                  "selectValues": "value",
                  "lazyLoad": false,
                  "key": "status",
                  "type": "select",
                  "input": true,
                  "searchEnabled": false,
                  "description": "Select the status of this scholarship."
                }
              ],
              "width": 3
            }
          ],
          "customClass": "text-dark",
          "hideLabel": true,
          "type": "columns",
          "input": false
        }
      ]
    },
    {
      "type": "button",
      "label": "Submit",
      "key": "submit",
      "disableOnInvalid": true,
      "input": true
    }
  ]
}
