{
  "model": "GraduationRequestActions",
  "title": "Graduation Requests",
  "searchExpression": "indexof(student/studentIdentifier, '${text}') ge 0 or indexof(student/person/familyName, '${text}') ge 0 or indexof(student/person/givenName, '${text}') ge 0 or indexof(student/studyProgram/name, '${text}') ge 0 or indexof(student/studentStatus/name, '${text}') ge 0)",
  "selectable": true,
  "multipleSelect": true,
  "columns": [
    {
      "name":"student/id",
      "property": "studentId",
      "hidden": true
    },
    {
      "name":"graduationEvent/id",
      "property": "graduationId",
      "hidden": true
    },
    {
      "name": "id",
      "property": "id",
      "formatter": "ActionLinkFormatter",
      "actions": [
        {
          "title": "Graduations.PreviewRequest",
          "href": "#/requests/${id}/edit"
        },
        {
          "title": "Graduations.PreviewStudent",
          "href": "#/students/${studentId}/dashboard/overview"
        }
      ]
    },
    {
      "name": "student/person/familyName",
      "property": "familyName",
      "hidden": true,
      "title": "Students.FamilyName"
    },
    {
      "name": "student/person/givenName",
      "property": "givenName",
      "title": "Students.fullName",
      "formatter": "TemplateFormatter",
      "formatString": "${familyName} ${givenName}"
    },
    {
      "name": "student/studentIdentifier",
      "property": "studentIdentifier",
      "title": "Students.studentIdentifier"
    },
    {
      "name": "student/studyProgram/name",
      "property": "studyProgram",
      "title": "Students.studyProgram"
    },
    {
      "name": "student/graduationGradeAdjusted",
      "property": "graduationGradeAdjusted",
      "title": "Graduations.Grade"
    },
    {
      "name": "actionStatus/alternateName",
      "property": "actionStatus",
      "hidden": true
    },
    {
      "name": "student/studentStatus/alternateName",
      "property": "studentStatus",
      "hidden": true
    }
  ],
  "criteria": [
    {
      "name": "studyProgram",
      "filter": "(indexof(student/studyProgram/name, '${value}') ge 0 )",
      "type": "text"
    },
    {
      "name": "studentName",
      "filter": "(indexof(student/person/familyName, '${value}') ge 0 or indexof(student/studentIdentifier, '${value}') ge 0)",
      "type": "text"
    },
    {
      "name": "studentIdentifier",
      "filter": "(indexof(student/studentIdentifier, '${value}') ge 0 )",
      "type": "text"
    },
    {
      "name": "graduationEventId",
      "filter": "(graduationEvent eq '${value}')",
      "type": "text"
    }
  ]
}
