{
    "model": "InstituteDocumentNumberSeries",
    "title": "Documents.Lists.InstituteDocumentNumberSeries.Description",
    "subtitle": "Edit item",
    "settings": {
      "i18n": {
        "el": {
          "Set the name of this document series. This name will be visible while inserting documents": "Ορίστε το όνομα αυτής της σειράς εγγράφων. Το στοιχείο αυτό θα είναι ορατό στις διαδικασίες εισαγωγής εγγράφων",
          "Set the last index of this document series. This value will be automatically incremented when adding documents in the series":"Ορίστε τον τελευταίο αριθμό εγγράφου για αυτή τη σειρά. Αυτή η τιμή θα αυξάνεται αυτόματα κατά την προσθήκη εγγράφων",
          "Set the status of this document series. An active document series will be visible and selectable while adding documents":"Ορίστε την κατάσταση αυτής της σειράς εγγράφων. Μία ενεργή σειρά εγγράφων είναι ορατή και επιλέξιμη όταν προσθέτετε έγγραφα",
          "Write a short description for this item": "Γράψτε μία σύντομη περιγραφή για αυτό το στοιχείο",
          "Set the document number format for this series. A document number should include parts of current date like {YYYY}, {MM}, {DD} or lastIndex parameter e.g. {YYYY}/{MM}/{0000}": "Ορίστε την μορφοποίηση των αριθμών εγγράφων. Η μορφοποίηση μπορεί να περιέχει στοιχεία από την τρέχουσα ημερομηνία {ΥΥΥΥ}, {MM}, {DD} ή και τον τελευταίο αριθμό εγγράφου πχ. {YYYY}/{MM}/{0000}",
          "Set an alternate name for this item. This name will be used to identify items":"Ορίστε μία εναλλακτική ονομασία για αυτό το στοιχείο. Αυτό το όνομα θα χρησιμοποιηθεί για την ταυτοποίηση του στοιχείου",
          "Last index": "Τελευταίος αριθμός",
          "Number format": "Μορφοποίηση αριθμού εγγράφου",
          "Is active": "Ενεργή",
          "Set the default status of this document series. Document series will be selected for auto printing report (e.g. from student requests)": "Ορίστε αν είναι προκαθορισμένη αυτή η σειρά εγγράφων. Αν είναι, θα χρησιμοποιηθεί για την αυτόματη επιλογή της όταν εκτυπώνεται η αναφορά (πχ από τις αιτήσεις φοιτητών).",
          "Is default": "Είναι προκαθορισμένη"
        }
      }
    },
    "components": [
      {
        "type": "fieldset",
        "components": [
          {
            "label": "HTML",
            "tag": "h5",
            "className": "font-weight-normal",
            "content": "{{instance.t(form.subtitle)}}",
            "refreshOnChange": false,
            "tableView": false,
            "key": "subtitle",
            "type": "htmlelement",
            "input": false
          },
          {
            "columns": [
              {
                "components": [
                  {
                    "label": "Name",
                    "labelPosition": "top",
                    "widget": {
                      "type": "input"
                    },
                    "validate": {
                      "required": true
                    },
                    "key": "name",
                    "type": "textfield",
                    "input": true,
                    "disabled": false,
                    "description": "Set the name of this document series. This name will be visible while inserting documents"
                  }
                ],
                "width": 8
              },
              {
                "components": [
                  {
                    "label": "Is active",
                    "defaultValue": false,
                    "validate": {
                        "unique": false,
                        "multiple": false
                    },
                    "key": "active",
                    "type": "checkbox",
                    "input": true,
                    "description": "Set the status of this document series. An active document series will be visible and selectable while adding documents"
                  }
                ],
                "width": 6
              },
              {
                "components": [
                  {
                    "label": "Is default",
                    "defaultValue": false,
                    "validate": {
                      "unique": false,
                      "multiple": false
                    },
                    "key": "isDefault",
                    "type": "checkbox",
                    "input": true,
                    "description": "Set the default status of this document series. Document series will be selected for auto printing report (e.g. from student requests)"
                  }
                ],
                "width": 6
              },
              {
                "components": [
                  {
                    "label": "Description",
                    "labelPosition": "top",
                    "widget": {
                      "type": "input"
                    },
                    "validate": {
                      "required": false
                    },
                    "key": "description",
                    "type": "textarea",
                    "input": true,
                    "description": "Write a short description for this item"
                  }
                ],
                "width": 12
              },
              {
                "components": [
                  {
                    "label": "Last index",
                    "labelPosition": "top",
                    "widget": {
                      "type": "input"
                    },
                    "validate": {
                      "required": true
                    },
                    "key": "lastIndex",
                    "type": "textfield",
                    "input": true,
                    "disabled": false,
                    "description": "Set the last index of this document series. This value will be automatically incremented when adding documents in the series"
                  }
                ],
                "width": 6
              },


              {
                "components": [
                  {
                    "label": "Number format",
                    "labelPosition": "top",
                    "widget": {
                      "type": "input"
                    },
                    "validate": {
                      "required": true
                    },
                    "key": "numberFormat",
                    "type": "textfield",
                    "input": true,
                    "disabled": false,
                    "description": "Set the document number format for this series. A document number should include parts of current date like {YYYY}, {MM}, {DD} or lastIndex parameter e.g. {YYYY}/{MM}/{0000}"
                  }
                ],
                "width": 6
              }
            ],
            "customClass": "text-dark",
            "hideLabel": true,
            "type": "columns",
            "input": false
          }
        ]
      },
      {
        "type": "button",
        "label": "Submit",
        "key": "submit",
        "disableOnInvalid": true,
        "input": true
      }
    ]
  }
