{
  "model": "CandidateStudentUploadActions",
  "searchExpression": "indexof(createdBy/alternateName, '${text}') ge 0 or indexof(inscriptionYear/alternateName, '${text}') ge 0",
  "columns": [
    {
      "name": "dateCreated",
      "property": "dateCreated",
      "title": "Register.DateCreated",
      "formatter": "DateTimeFormatter",
      "formatString": "short"
    },
    {
      "name": "createdBy/alternateName",
      "property": "createdByName",
      "title": "Requests.CreatedBy"
    },
    {
      "name": "inscriptionYear/alternateName",
      "property": "inscriptionYear",
      "title": "Candidates.UploadActions.InscriptionYear"
    },
    {
      "name": "totalCandidates",
      "property": "totalCandidates",
      "title": "Candidates.UploadActions.TotalCandidates",
      "className": "text-center"
    },
    {
      "name": "totalInserted",
      "property": "totalInserted",
      "title": "Candidates.UploadActions.TotalInserted",
      "className": "text-center"
    },
    {
      "name": "totalFailed",
      "property": "totalFailed",
      "title": "Candidates.UploadActions.TotalFailed",
      "className": "text-center"
    },
    {
      "name": "totalSkipped",
      "property": "totalSkipped",
      "title": "Candidates.UploadActions.TotalSkipped",
      "className": "text-center"
    },
    {
      "name": "updateForced",
      "property": "updateForced",
      "title": "Candidates.UploadActions.UpdateForced",
      "formatter": "TrueFalseFormatter"
    },
    {
      "name": "actionStatus/alternateName",
      "property": "actionStatus",
      "title": "Candidates.Status",
      "formatters": [
        {
          "formatter": "TranslationFormatter",
          "formatString": "Candidates.UploadActions.ActionStatusTypes.${value}"
        },
        {
          "formatter": "NgClassFormatter",
          "formatOptions": {
            "ngClass": {
              "text-danger": "'${actionStatus}'==='CancelledActionStatus' || '${actionStatus}'==='FailedActionStatus'",
              "text-primary": "'${actionStatus}'==='ActiveActionStatus' || '${actionStatus}'==='PotentialActionStatus'",
              "text-success": "'${actionStatus}'==='CompletedActionStatus'"
            }
          }
        }
      ]
    },
    {
      "name": "id",
      "property": "id",
      "formatter": "ButtonFormatter",
      "formatString": "#/candidate-students/upload-actions/list/(modal:item/${id}/results)",
      "className": "text-center",
      "formatOptions": {
        "buttonTitle": "Candidates.UploadActions.Results",
        "buttonText": "Candidates.UploadActions.Results",
        "buttonClass": "btn btn-default text-theme"
      }
    }
  ],
  "criteria": [
    {
      "name": "inscriptionYear",
      "filter": "(inscriptionYear/alternateName eq '${value}')",
      "type": "text"
    },
    {
      "name": "actionStatus",
      "filter": "(actionStatus/alternateName eq '${value}')",
      "type": "text"
    },
    {
      "name": "updateForced",
      "filter": "(updateForced eq ${value})",
      "type": "text"
    },
    {
      "name": "atLeastOneFailed",
      "filter": "${value >= 1  ? '(totalFailed gt 0)': '(totalFailed eq 0)'}",
      "type": "text"
    },
    {
      "name": "allCandidatesInserted",
      "filter": "${value >= 1  ? '(totalCandidates eq totalInserted)': '(totalCandidates ne totalInserted)'}",
      "type": "text"
    }
  ],
  "defaults": {
    "orderBy": "id desc"
  },
  "paths": []
}
